;for;while;if;else;declare;id;(;);{;};[;];";";:;,; + ; - ; * ; / ;>;<; == ;>=;<=;!=; = ;int ;bool;float;char;string;numero;cadena;$
CUERPO;BUCLE;BUCLE;IF;;DEC;OPERATION;OPERATION;;OPERATION;;;;;;;;;;;;;;;;;;;;;;;OPERATION;OPERATION;
DEC;;;;;declare TIPO VAR;;;;;;;;;;;;;;;;;;;;;;;;;;;;;
TIPO;;;;;;;;;;;;;;;;;;;;;;;;;;;int;bool;float;char;string;;;
VAR;;;;;;id VAR';;;;;;;;;;;;;;;;;;;;;;;;;;;;
VAR';;;;;;;;;;;VARM2;;;;, VAR;K;K;K;K;K;K;K;K;K;K;VAR2;;;;;;;;
VAR2;;;;;;;;;;;;;;;;;;;;;;;;;;ASIG VAR';;;;;;;;
ASIG;;;;;;;;;;;;;;;;;;;;;;;;;; = OPERATION;;;;;;;;
VARM2;;;;;;;;;;;[numero][numero] ASIG VAR';;;;;;;;;;;;;;;;;;;;;;;
OPERATION;;;;;;VALOR K;VALOR K;;{M};;;;;;;;;;;;;;;;;;;;;;;VALOR K;VALOR K;
VALOR;;;;;;VAR;(VAR)[numero][numero];;;;;;;;;;;;;;;;;;;;;;;;;numero;cadena;
K;;;;;;e;e;e;;e;;;e;;;OP VALOR K;OP VALOR K;OP VALOR K;OP VALOR K;OPCMP VALOR K;OPCMP VALOR K;OPCMP VALOR K;OPCMP VALOR K;OPCMP VALOR K;OPCMP VALOR K;;;;;;;e;e;e
M;;;;;;VALOR M;VALOR M;;;e;;;;: M;;;;;;;;;;;;;;;;;;VALOR M;VALOR M;
BUCLE;FOR;WHILE;;;;;;;;;;;;;;;;;;;;;;;;;;;;;;;;
FOR;"for  (DEC; OPERATION;  OPERATION){CUERPO}";; ;;;;;;;;;;;;;;;;;;;;;;;;;;;;;;;
WHILE;;while(OPERATION){CUERPO};;;;;;;;;;;;;;;;;;;;;;;;;;;;;;;;
IF;;;if (OPERATION) {CUERPO} IF2;;;;;;;;;;;;;;;;;;;;;;;;;;;;;;;
IF2;;;;else{CUERPO};;;;;;e;;;;;;;;;;;;;;;;;;;;;;;;e
OP;;;;;;;;;;;;;;;; + ; - ; * ; / ;;;;;;;;;;;;;;;
OPCMP;;;;;;;;;;;;;;;;;;;;>;<; ==;>=;<=;!=;;;;;;;;;
