int fun principal(int a, int b)
{
  float c;
  c := a + b;
  return c;


  int fun xxx ( int p ) {
  if ( p < 1.0 ) {
    return p ;
  }
  else {
    p := p + fun xxx ( p - 1.0 ) ;
  return p ;
  }
}
