int _a23=0,b= 0;
float b53s=.3,b41_=0.3;
# esto es un comentario
string b_14 = "123abc";
void func(int a)
{
  for(int i=0;i<10;i++)
  {
    return i;
  }
}
void funcion ()
{
  a = 5..4;
  5.
  .5
  string f=":;$__567dfsdertertrfsdfsdfsdfsdfsdfsdfsdf$66fkkfjdfk:;[{}]";
  char a='4';
  while (a)
  {
    a=5.4;
    break;
  }
}
int main ()
{
  if (a!=b and (b<=c))
  {
    a=a+b;
  }
  elif (c>0)
  {
    b=15;
  }
  else
  {
    d=10;
  }
  return 0;
}
