-------------INICIO LINEA 1-------------
1	LEXEMA : TIP_DAT 	,TOKEN: int
2	LEXEMA : NOM_VAR 	,TOKEN: _a23
3	LEXEMA : IGUAL 	,TOKEN: =
4	LEXEMA : NUMERO_ENTERO 	,TOKEN: 0
5	LEXEMA : COMA 	,TOKEN: ,
6	LEXEMA : NOM_VAR 	,TOKEN: b
7	LEXEMA : IGUAL 	,TOKEN: =
8	LEXEMA : NUMERO_ENTERO 	,TOKEN: 0
9	LEXEMA : FINL 	,TOKEN: ;
-------------INICIO LINEA 2-------------
10	LEXEMA : TIP_DAT 	,TOKEN: float
11	LEXEMA : NOM_VAR 	,TOKEN: b53s
12	LEXEMA : IGUAL 	,TOKEN: =
13	LEXEMA : ERROR 	,TOKEN: .3
14	LEXEMA : COMA 	,TOKEN: ,
15	LEXEMA : NOM_VAR 	,TOKEN: b41_
16	LEXEMA : IGUAL 	,TOKEN: =
17	LEXEMA : NUMERO_FlOTANTE 	,TOKEN: 0.3
18	LEXEMA : FINL 	,TOKEN: ;
-------------INICIO LINEA 3-------------
19	LEXEMA : TIP_DAT 	,TOKEN: string
20	LEXEMA : NOM_VAR 	,TOKEN: b_14
21	LEXEMA : IGUAL 	,TOKEN: =
22	LEXEMA : STRING 	,TOKEN: "123abc"
23	LEXEMA : FINL 	,TOKEN: ;
-------------INICIO LINEA 4-------------
24	LEXEMA : TIP_DAT 	,TOKEN: void
25	LEXEMA : NOM_VAR 	,TOKEN: func
26	LEXEMA : PAR_OP 	,TOKEN: (
27	LEXEMA : TIP_DAT 	,TOKEN: int
28	LEXEMA : NOM_VAR 	,TOKEN: a
29	LEXEMA : PAR_CL 	,TOKEN: )
-------------INICIO LINEA 5-------------
30	LEXEMA : LL_OP 	,TOKEN: {
-------------INICIO LINEA 6-------------
31	LEXEMA : FOR 	,TOKEN: for
32	LEXEMA : PAR_OP 	,TOKEN: (
33	LEXEMA : TIP_DAT 	,TOKEN: int
34	LEXEMA : NOM_VAR 	,TOKEN: i
35	LEXEMA : IGUAL 	,TOKEN: =
36	LEXEMA : NUMERO_ENTERO 	,TOKEN: 0
37	LEXEMA : FINL 	,TOKEN: ;
38	LEXEMA : NOM_VAR 	,TOKEN: i
39	LEXEMA : OPE_CMP 	,TOKEN: <
40	LEXEMA : NUMERO_ENTERO 	,TOKEN: 10
41	LEXEMA : FINL 	,TOKEN: ;
42	LEXEMA : NOM_VAR 	,TOKEN: i
43	LEXEMA : OPE_INCRE 	,TOKEN: ++
44	LEXEMA : PAR_CL 	,TOKEN: )
-------------INICIO LINEA 7-------------
45	LEXEMA : LL_OP 	,TOKEN: {
-------------INICIO LINEA 8-------------
46	LEXEMA : RETURN 	,TOKEN: return
47	LEXEMA : NOM_VAR 	,TOKEN: i
48	LEXEMA : FINL 	,TOKEN: ;
-------------INICIO LINEA 9-------------
49	LEXEMA : LL_CL 	,TOKEN: }
-------------INICIO LINEA 10-------------
50	LEXEMA : LL_CL 	,TOKEN: }
-------------INICIO LINEA 11-------------
51	LEXEMA : TIP_DAT 	,TOKEN: void
52	LEXEMA : NOM_VAR 	,TOKEN: funcion
53	LEXEMA : PAR_OP 	,TOKEN: (
54	LEXEMA : PAR_CL 	,TOKEN: )
-------------INICIO LINEA 12-------------
55	LEXEMA : LL_OP 	,TOKEN: {
-------------INICIO LINEA 13-------------
56	LEXEMA : NOM_VAR 	,TOKEN: a
57	LEXEMA : IGUAL 	,TOKEN: =
58	LEXEMA : ERROR 	,TOKEN: 5..4
59	LEXEMA : FINL 	,TOKEN: ;
-------------INICIO LINEA 14-------------
60	LEXEMA : NUMERO_FlOTANTE 	,TOKEN: 5.
-------------INICIO LINEA 15-------------
61	LEXEMA : ERROR 	,TOKEN: .5
-------------INICIO LINEA 16-------------
62	LEXEMA : TIP_DAT 	,TOKEN: string
63	LEXEMA : NOM_VAR 	,TOKEN: f
64	LEXEMA : IGUAL 	,TOKEN: =
65	LEXEMA : STRING 	,TOKEN: ":;$__567dfsdertertrfsdfsdfsdfsdfsdfsdfsdf$66fkkfjdfk:;[{}]"
66	LEXEMA : FINL 	,TOKEN: ;
-------------INICIO LINEA 17-------------
67	LEXEMA : TIP_DAT 	,TOKEN: char
68	LEXEMA : NOM_VAR 	,TOKEN: a
69	LEXEMA : IGUAL 	,TOKEN: =
70	LEXEMA : CHAR 	,TOKEN: '4'
71	LEXEMA : FINL 	,TOKEN: ;
-------------INICIO LINEA 18-------------
72	LEXEMA : WHILE 	,TOKEN: while
73	LEXEMA : PAR_OP 	,TOKEN: (
74	LEXEMA : NOM_VAR 	,TOKEN: a
75	LEXEMA : PAR_CL 	,TOKEN: )
-------------INICIO LINEA 19-------------
76	LEXEMA : LL_OP 	,TOKEN: {
-------------INICIO LINEA 20-------------
77	LEXEMA : NOM_VAR 	,TOKEN: a
78	LEXEMA : IGUAL 	,TOKEN: =
79	LEXEMA : NUMERO_FlOTANTE 	,TOKEN: 5.4
80	LEXEMA : FINL 	,TOKEN: ;
-------------INICIO LINEA 21-------------
81	LEXEMA : BREAK 	,TOKEN: break
82	LEXEMA : FINL 	,TOKEN: ;
-------------INICIO LINEA 22-------------
83	LEXEMA : LL_CL 	,TOKEN: }
-------------INICIO LINEA 23-------------
84	LEXEMA : LL_CL 	,TOKEN: }
-------------INICIO LINEA 24-------------
85	LEXEMA : TIP_DAT 	,TOKEN: int
86	LEXEMA : MAIN 	,TOKEN: main
87	LEXEMA : PAR_OP 	,TOKEN: (
88	LEXEMA : PAR_CL 	,TOKEN: )
-------------INICIO LINEA 25-------------
89	LEXEMA : LL_OP 	,TOKEN: {
-------------INICIO LINEA 26-------------
90	LEXEMA : IF 	,TOKEN: if
91	LEXEMA : PAR_OP 	,TOKEN: (
92	LEXEMA : NOM_VAR 	,TOKEN: a
93	LEXEMA : OPE_CMP 	,TOKEN: !=
94	LEXEMA : NOM_VAR 	,TOKEN: b
95	LEXEMA : OPE_LOG 	,TOKEN: and
96	LEXEMA : PAR_OP 	,TOKEN: (
97	LEXEMA : NOM_VAR 	,TOKEN: b
98	LEXEMA : OPE_CMP 	,TOKEN: <=
99	LEXEMA : NOM_VAR 	,TOKEN: c
100	LEXEMA : PAR_CL 	,TOKEN: )
-------------INICIO LINEA 27-------------
101	LEXEMA : LL_OP 	,TOKEN: {
-------------INICIO LINEA 28-------------
102	LEXEMA : NOM_VAR 	,TOKEN: a
103	LEXEMA : IGUAL 	,TOKEN: =
104	LEXEMA : NOM_VAR 	,TOKEN: a
105	LEXEMA : OPE_ARIT 	,TOKEN: +
106	LEXEMA : NOM_VAR 	,TOKEN: b
107	LEXEMA : FINL 	,TOKEN: ;
-------------INICIO LINEA 29-------------
108	LEXEMA : LL_CL 	,TOKEN: }
-------------INICIO LINEA 30-------------
109	LEXEMA : ELSEIF 	,TOKEN: elif
110	LEXEMA : PAR_OP 	,TOKEN: (
111	LEXEMA : NOM_VAR 	,TOKEN: c
112	LEXEMA : OPE_CMP 	,TOKEN: >
113	LEXEMA : NUMERO_ENTERO 	,TOKEN: 0
114	LEXEMA : PAR_CL 	,TOKEN: )
-------------INICIO LINEA 31-------------
115	LEXEMA : LL_OP 	,TOKEN: {
-------------INICIO LINEA 32-------------
116	LEXEMA : NOM_VAR 	,TOKEN: b
117	LEXEMA : IGUAL 	,TOKEN: =
118	LEXEMA : NUMERO_ENTERO 	,TOKEN: 15
119	LEXEMA : FINL 	,TOKEN: ;
-------------INICIO LINEA 33-------------
120	LEXEMA : LL_CL 	,TOKEN: }
-------------INICIO LINEA 34-------------
121	LEXEMA : ELSE 	,TOKEN: else
-------------INICIO LINEA 35-------------
122	LEXEMA : LL_OP 	,TOKEN: {
-------------INICIO LINEA 36-------------
123	LEXEMA : NOM_VAR 	,TOKEN: d
124	LEXEMA : IGUAL 	,TOKEN: =
125	LEXEMA : NUMERO_ENTERO 	,TOKEN: 10
126	LEXEMA : FINL 	,TOKEN: ;
-------------INICIO LINEA 37-------------
127	LEXEMA : LL_CL 	,TOKEN: }
-------------INICIO LINEA 38-------------
128	LEXEMA : RETURN 	,TOKEN: return
129	LEXEMA : NUMERO_ENTERO 	,TOKEN: 0
130	LEXEMA : FINL 	,TOKEN: ;
-------------INICIO LINEA 39-------------
131	LEXEMA : LL_CL 	,TOKEN: }
