-------------INICIO LINEA 1-------------
0	LEXEMA : TIP_DAT 	,TOKEN: int
0	LEXEMA : NOM_VAR 	,TOKEN: a
0	LEXEMA : IGUAL 	,TOKEN: =
0	LEXEMA : ERROR 	,TOKEN: :
0	LEXEMA : IGUAL 	,TOKEN: =
0	LEXEMA : NUMERO_ENTERO 	,TOKEN: 9
0	LEXEMA : FINL 	,TOKEN: ;
