Tabla Sintactica
N_Variable 	Tipo de Dato 	Valor Guardado	Tamaño de Dato 	Funcion 	Variable de Entrada	
int		------------		------------		------------		------------		------------		
a		------------		------------		------------		------------		------------		